<?xml version="1.0" encoding="UTF-8" standalone="no"?>
<svg
   width="1920px"
   height="1080px"
   viewBox="0 0 1920 1080"
   version="1.1"
   id="SVGRoot"
   inkscape:version="1.1 (c68e22c387, 2021-05-23)"
   sodipodi:docname="container-registry.svg"
   inkscape:export-filename="/home/sam/gitlab/software-containers-animation/png/21b_repository.png"
   inkscape:export-xdpi="96"
   inkscape:export-ydpi="96"
   xmlns:inkscape="http://www.inkscape.org/namespaces/inkscape"
   xmlns:sodipodi="http://sodipodi.sourceforge.net/DTD/sodipodi-0.dtd"
   xmlns="http://www.w3.org/2000/svg"
   xmlns:svg="http://www.w3.org/2000/svg"
   xmlns:rdf="http://www.w3.org/1999/02/22-rdf-syntax-ns#"
   xmlns:cc="http://creativecommons.org/ns#"
   xmlns:dc="http://purl.org/dc/elements/1.1/">
  <style
     id="style845" />
  <defs
     id="defs2">
    <rect
       x="129.01262"
       y="272"
       width="456.3634"
       height="172.59068"
       id="rect20823" />
    <rect
       x="129.01262"
       y="272"
       width="456.3634"
       height="172.59068"
       id="rect20825" />
    <rect
       x="129.01262"
       y="272"
       width="496.24245"
       height="168.71198"
       id="rect21136-3" />
    <rect
       x="129.01262"
       y="272"
       width="496.24245"
       height="168.71198"
       id="rect2624" />
  </defs>
  <sodipodi:namedview
     inkscape:window-maximized="1"
     inkscape:window-y="30"
     inkscape:window-x="0"
     inkscape:window-height="1017"
     inkscape:window-width="1920"
     id="base"
     pagecolor="#ffffff"
     bordercolor="#666666"
     borderopacity="0.49803922"
     inkscape:pageopacity="0.10196078"
     inkscape:pageshadow="2"
     inkscape:zoom="0.35355339"
     inkscape:cx="875.39819"
     inkscape:cy="91.923881"
     inkscape:document-units="px"
     inkscape:current-layer="g2622"
     inkscape:document-rotation="0"
     showgrid="false"
     units="px"
     inkscape:pagecheckerboard="true"
     inkscape:snap-global="true"
     inkscape:object-paths="true"
     inkscape:snap-bbox="true"
     inkscape:snap-smooth-nodes="true"
     inkscape:bbox-paths="true"
     inkscape:bbox-nodes="true"
     inkscape:object-nodes="true"
     inkscape:snap-intersection-paths="true"
     inkscape:showpageshadow="false"
     borderlayer="true">
    <inkscape:grid
       type="xygrid"
       id="grid833"
       empcolor="#215ae3"
       empopacity="0.07843137"
       color="#0f9ff1"
       opacity="0.07058824"
       dotted="false"
       visible="false"
       enabled="false" />
    <inkscape:grid
       type="xygrid"
       id="grid13641"
       spacingx="6"
       spacingy="6"
       color="#3f81ff"
       opacity="0.1254902"
       empcolor="#3f3fff"
       empopacity="0.32156863"
       empspacing="4"
       dotted="true"
       snapvisiblegridlinesonly="false" />
  </sodipodi:namedview>
  <metadata
     id="metadata5">
    <rdf:RDF>
      <cc:Work
         rdf:about="">
        <dc:format>image/svg+xml</dc:format>
        <dc:type
           rdf:resource="http://purl.org/dc/dcmitype/StillImage" />
      </cc:Work>
    </rdf:RDF>
  </metadata>
  <g
     inkscape:groupmode="layer"
     id="layer1"
     inkscape:label="bg"
     sodipodi:insensitive="true">
    <rect
       style="display:inline;fill:#ffffff;stroke:none;stroke-width:6.01156;stroke-linecap:round;stroke-linejoin:round"
       id="rect3138"
       width="1920"
       height="1080"
       x="0"
       y="0"
       ry="6.0245275" />
  </g>
  <g
     inkscape:label="01"
     inkscape:groupmode="layer"
     id="g3296"
     style="display:inline"
     sodipodi:insensitive="true">
    <path
       id="rect15442-3"
       style="display:inline;fill:#b3b3b3;stroke:#545454;stroke-width:5.99998;stroke-linecap:round;stroke-linejoin:round;stroke-opacity:0.995065"
       d="m 1003.704,1054.623 v -49.9641 h 54 v 49.9641"
       sodipodi:nodetypes="cccc" />
    <path
       id="rect15446-6"
       style="display:inline;fill:#b3b3b3;stroke:#545454;stroke-width:5.99998;stroke-linecap:round;stroke-linejoin:round;stroke-opacity:0.995065"
       d="m 1123.704,1054.623 v -49.9641 h 54 v 49.9641"
       sodipodi:nodetypes="cccc" />
    <path
       id="path15440-5"
       style="display:inline;fill:none;stroke:#000000;stroke-width:6;stroke-linecap:round;stroke-linejoin:round;stroke-opacity:0.995065"
       d="M 997.70398,998.65887 H 1183.704 V 1054.623 H 997.70398 Z"
       sodipodi:nodetypes="ccccc" />
    <path
       id="rect3140"
       style="fill:#ffffff;fill-opacity:0.99;stroke:#000000;stroke-width:6;stroke-linecap:round;stroke-linejoin:round;stroke-opacity:0.984314"
       d="M 165.69701,112.5579 V 56.408398 c 0,-9.323487 7.50591,-16.829399 16.8294,-16.829399 H 1737.4776 c 9.3235,0 16.8294,7.505912 16.8294,16.829399 V 112.5579"
       sodipodi:nodetypes="cssssc" />
    <path
       style="fill:none;stroke:#000000;stroke-width:6;stroke-linecap:round;stroke-linejoin:miter;stroke-miterlimit:4;stroke-dasharray:none;stroke-opacity:1"
       d="M 165.69678,112.5579 H 1754.3032"
       id="path3242" />
    <circle
       style="fill:#000000;fill-opacity:1;stroke:#000000;stroke-width:6;stroke-linecap:round;stroke-linejoin:round;stroke-miterlimit:4;stroke-dasharray:none;stroke-opacity:1"
       id="circle3244"
       cx="1713.7347"
       cy="76.029022"
       r="6" />
    <circle
       style="fill:#000000;fill-opacity:1;stroke:#000000;stroke-width:6;stroke-linecap:round;stroke-linejoin:round;stroke-miterlimit:4;stroke-dasharray:none;stroke-opacity:1"
       id="circle3246"
       cx="1673.7347"
       cy="76.029022"
       r="6" />
    <circle
       style="fill:#000000;fill-opacity:1;stroke:#000000;stroke-width:6;stroke-linecap:round;stroke-linejoin:round;stroke-miterlimit:4;stroke-dasharray:none;stroke-opacity:1"
       id="circle3248"
       cx="1633.7347"
       cy="76.029022"
       r="6" />
    <rect
       style="fill:none;fill-opacity:0.99;stroke:#000000;stroke-width:6;stroke-linecap:round;stroke-linejoin:round;stroke-miterlimit:4;stroke-dasharray:none;stroke-opacity:0.984314"
       id="rect3250"
       width="1588.6064"
       height="942.14948"
       x="165.69678"
       y="112.5579" />
    <rect
       style="display:inline;fill:#ffffff;fill-opacity:1;stroke:#000000;stroke-width:6;stroke-linecap:round;stroke-linejoin:round;stroke-opacity:0.992157"
       id="rect21114"
       width="710.15942"
       height="107.37144"
       x="638.47009"
       y="200.98119"
       ry="15.615433" />
    <text
       xml:space="preserve"
       id="text21128"
       style="font-size:40px;line-height:1.25;font-family:'Arial Black';-inkscape-font-specification:'Arial Black, ';white-space:pre;shape-inside:url(#rect21136-3);display:inline;stroke-width:0.539387"
       transform="matrix(1.8539562,0,0,1.8539562,641.55522,-292.34856)"><tspan
         x="129.01172"
         y="308.78082"
         id="tspan23977"><tspan
           style="font-family:Roboto;-inkscape-font-specification:Roboto;fill:#545454"
           id="tspan23975">Search</tspan></tspan></text>
    <g
       id="g3500"
       transform="matrix(0.45073737,-0.45073737,0.45073737,0.45073737,347.04199,407.98235)"
       style="stroke:#545454;stroke-width:1.56878">
      <path
         id="path3257"
         style="fill:#ffffff;stroke:#545454;stroke-width:9.41267;stroke-linecap:round;stroke-linejoin:round;stroke-opacity:0.995065"
         d="m 585.41872,185.11928 a 34.829849,34.829849 0 0 1 -34.82985,34.82985 34.829849,34.829849 0 0 1 -34.82985,-34.82985 34.829849,34.829849 0 0 1 34.82985,-34.82985 34.829849,34.829849 0 0 1 34.82985,34.82985 z" />
      <path
         style="fill:#ffffff;stroke:#545454;stroke-width:9.41267;stroke-linecap:round;stroke-linejoin:round;stroke-opacity:0.995065"
         d="m 550.58887,219.94913 v 65.05223"
         id="path3416" />
    </g>
    <path
       id="rect14354"
       style="fill:#ffffff;stroke:#000000;stroke-width:6;stroke-linecap:round;stroke-linejoin:round;stroke-opacity:0.995065"
       d="m 237.70396,478.65894 h 186 v 186 h -186 z"
       sodipodi:nodetypes="ccccc" />
    <rect
       style="fill:#b3b3b3;stroke:#545454;stroke-width:5.99998;stroke-linecap:round;stroke-linejoin:round;stroke-opacity:0.995065"
       id="rect14579"
       width="54"
       height="54.000019"
       x="243.70396"
       y="484.65894" />
    <rect
       style="fill:#b3b3b3;stroke:#545454;stroke-width:5.99998;stroke-linecap:round;stroke-linejoin:round;stroke-opacity:0.995065"
       id="rect14673"
       width="54"
       height="54.000019"
       x="303.70398"
       y="484.65894" />
    <rect
       style="fill:#b3b3b3;stroke:#545454;stroke-width:5.99998;stroke-linecap:round;stroke-linejoin:round;stroke-opacity:0.995065"
       id="rect14675"
       width="54"
       height="54.000019"
       x="363.70398"
       y="484.65894" />
    <rect
       style="fill:#b3b3b3;stroke:#545454;stroke-width:5.99998;stroke-linecap:round;stroke-linejoin:round;stroke-opacity:0.995065"
       id="rect14677"
       width="54"
       height="54.000019"
       x="363.70398"
       y="604.65894" />
    <rect
       style="fill:#b3b3b3;stroke:#545454;stroke-width:5.99998;stroke-linecap:round;stroke-linejoin:round;stroke-opacity:0.995065"
       id="rect14679"
       width="54"
       height="54.000019"
       x="243.70398"
       y="544.65894" />
    <path
       id="path15237"
       style="fill:#ffffff;stroke:#000000;stroke-width:6;stroke-linecap:round;stroke-linejoin:round;stroke-opacity:0.995065"
       d="m 237.70396,738.6589 h 186 v 186 h -186 z"
       sodipodi:nodetypes="ccccc" />
    <rect
       style="fill:#b3b3b3;stroke:#545454;stroke-width:5.99998;stroke-linecap:round;stroke-linejoin:round;stroke-opacity:0.995065"
       id="rect15239"
       width="54"
       height="54.000019"
       x="243.70396"
       y="744.65887" />
    <rect
       style="fill:#b3b3b3;stroke:#545454;stroke-width:5.99998;stroke-linecap:round;stroke-linejoin:round;stroke-opacity:0.995065"
       id="rect15241"
       width="54"
       height="54.000019"
       x="243.70398"
       y="864.65894" />
    <rect
       style="fill:#b3b3b3;stroke:#545454;stroke-width:5.99998;stroke-linecap:round;stroke-linejoin:round;stroke-opacity:0.995065"
       id="rect15243"
       width="54"
       height="54.000019"
       x="363.70398"
       y="744.65887" />
    <rect
       style="fill:#b3b3b3;stroke:#545454;stroke-width:5.99998;stroke-linecap:round;stroke-linejoin:round;stroke-opacity:0.995065"
       id="rect15245"
       width="54"
       height="54.000019"
       x="363.70398"
       y="864.65887" />
    <rect
       style="fill:#b3b3b3;stroke:#545454;stroke-width:5.99998;stroke-linecap:round;stroke-linejoin:round;stroke-opacity:0.995065"
       id="rect15247"
       width="54"
       height="54.000019"
       x="243.70398"
       y="804.65894" />
    <path
       id="rect15442"
       style="fill:#b3b3b3;stroke:#545454;stroke-width:5.99998;stroke-linecap:round;stroke-linejoin:round;stroke-opacity:0.995065"
       d="m 243.70396,1054.623 v -49.9641 h 54 v 49.9641"
       sodipodi:nodetypes="cccc" />
    <path
       id="rect15446"
       style="fill:#b3b3b3;stroke:#545454;stroke-width:5.99998;stroke-linecap:round;stroke-linejoin:round;stroke-opacity:0.995065"
       d="m 363.70398,1054.623 v -49.9641 h 54 v 49.9641"
       sodipodi:nodetypes="cccc" />
    <path
       id="rect15450"
       style="fill:#b3b3b3;stroke:#545454;stroke-width:5.99998;stroke-linecap:round;stroke-linejoin:round;stroke-opacity:0.995065"
       d="m 303.70401,1054.623 v -49.9641 h 54 v 49.9641"
       sodipodi:nodetypes="cccc" />
    <path
       id="path15440"
       style="fill:none;stroke:#000000;stroke-width:6;stroke-linecap:round;stroke-linejoin:round;stroke-opacity:0.995065"
       d="m 237.70396,998.6589 h 186 v 55.9641 h -186 z"
       sodipodi:nodetypes="ccccc" />
    <g
       id="g16900"
       transform="translate(6,-5.20833)">
      <path
         style="fill:#b3b3b3;stroke:#000000;stroke-width:6;stroke-linecap:round;stroke-linejoin:round;stroke-opacity:0.995065"
         d="m 463.70396,507.86727 h 354"
         id="path16048"
         sodipodi:nodetypes="cc" />
      <path
         style="fill:#b3b3b3;stroke:#b3b3b3;stroke-width:6;stroke-linecap:round;stroke-linejoin:round;stroke-miterlimit:4;stroke-dasharray:36, 18, 48, 12;stroke-dashoffset:0;stroke-opacity:0.995065"
         d="m 463.70396,555.86727 h 340"
         id="path16305"
         sodipodi:nodetypes="cc" />
      <path
         style="fill:#b3b3b3;stroke:#b3b3b3;stroke-width:6;stroke-linecap:round;stroke-linejoin:round;stroke-opacity:0.995065"
         d="m 463.70396,635.86727 h 134"
         id="path16462"
         sodipodi:nodetypes="cc" />
      <path
         style="fill:#b3b3b3;stroke:#b3b3b3;stroke-width:6;stroke-linecap:round;stroke-linejoin:round;stroke-miterlimit:4;stroke-dasharray:36, 18, 48, 12;stroke-dashoffset:24;stroke-opacity:0.995065"
         d="m 463.70396,595.86727 h 354"
         id="path16795"
         sodipodi:nodetypes="cc" />
    </g>
    <g
       id="g17042"
       transform="translate(6,254.79163)">
      <path
         style="fill:#b3b3b3;stroke:#000000;stroke-width:6;stroke-linecap:round;stroke-linejoin:round;stroke-opacity:0.995065"
         d="m 463.70396,507.86727 h 354"
         id="path17034"
         sodipodi:nodetypes="cc" />
      <path
         style="fill:#b3b3b3;stroke:#b3b3b3;stroke-width:6;stroke-linecap:round;stroke-linejoin:round;stroke-miterlimit:4;stroke-dasharray:36, 18, 48, 12;stroke-dashoffset:0;stroke-opacity:0.995065"
         d="m 463.70396,555.86727 h 340"
         id="path17036"
         sodipodi:nodetypes="cc" />
      <path
         style="fill:#b3b3b3;stroke:#b3b3b3;stroke-width:6;stroke-linecap:round;stroke-linejoin:round;stroke-opacity:0.995065"
         d="m 463.70396,635.86727 h 134"
         id="path17038"
         sodipodi:nodetypes="cc" />
      <path
         style="fill:#b3b3b3;stroke:#b3b3b3;stroke-width:6;stroke-linecap:round;stroke-linejoin:round;stroke-miterlimit:4;stroke-dasharray:36, 18, 48, 12;stroke-dashoffset:24;stroke-opacity:0.995065"
         d="m 463.70396,595.86727 h 354"
         id="path17040"
         sodipodi:nodetypes="cc" />
    </g>
    <path
       style="fill:#b3b3b3;stroke:#000000;stroke-width:6;stroke-linecap:round;stroke-linejoin:round;stroke-opacity:0.995065"
       d="m 469.70396,1022.6589 h 354"
       id="path17044"
       sodipodi:nodetypes="cc" />
    <g
       id="g15654"
       transform="translate(100,-519.99996)">
      <path
         id="path15636"
         style="fill:#ffffff;stroke:#000000;stroke-width:6;stroke-linecap:round;stroke-linejoin:round;stroke-opacity:0.995065"
         d="M 897.70396,998.6589 H 1083.704 v 186 H 897.70396 Z"
         sodipodi:nodetypes="ccccc" />
      <rect
         style="fill:#b3b3b3;stroke:#545454;stroke-width:5.99998;stroke-linecap:round;stroke-linejoin:round;stroke-opacity:0.995065"
         id="rect15638"
         width="54"
         height="54.000019"
         x="903.70398"
         y="1004.6589" />
      <rect
         style="fill:#b3b3b3;stroke:#545454;stroke-width:5.99998;stroke-linecap:round;stroke-linejoin:round;stroke-opacity:0.995065"
         id="rect15640"
         width="54"
         height="54.000019"
         x="903.70398"
         y="1124.6589" />
      <rect
         style="fill:#b3b3b3;stroke:#545454;stroke-width:5.99998;stroke-linecap:round;stroke-linejoin:round;stroke-opacity:0.995065"
         id="rect15642"
         width="54"
         height="54.000019"
         x="1023.704"
         y="1004.6589" />
      <rect
         style="fill:#b3b3b3;stroke:#545454;stroke-width:5.99998;stroke-linecap:round;stroke-linejoin:round;stroke-opacity:0.995065"
         id="rect15644"
         width="54"
         height="54.000019"
         x="963.70398"
         y="1124.6589" />
      <rect
         style="fill:#b3b3b3;stroke:#545454;stroke-width:5.99998;stroke-linecap:round;stroke-linejoin:round;stroke-opacity:0.995065"
         id="rect15646"
         width="54"
         height="54.000019"
         x="963.70398"
         y="1004.6589" />
    </g>
    <path
       id="path15624"
       style="fill:#ffffff;stroke:#000000;stroke-width:6;stroke-linecap:round;stroke-linejoin:round;stroke-opacity:0.995065"
       d="M 997.70396,738.6589 H 1183.704 v 186 H 997.70396 Z"
       sodipodi:nodetypes="ccccc" />
    <rect
       style="fill:#b3b3b3;stroke:#545454;stroke-width:5.99998;stroke-linecap:round;stroke-linejoin:round;stroke-opacity:0.995065"
       id="rect15626"
       width="54"
       height="54.000019"
       x="1003.704"
       y="744.65887" />
    <rect
       style="fill:#b3b3b3;stroke:#545454;stroke-width:5.99998;stroke-linecap:round;stroke-linejoin:round;stroke-opacity:0.995065"
       id="rect15628"
       width="54"
       height="54.000019"
       x="1003.704"
       y="864.65894" />
    <rect
       style="fill:#b3b3b3;stroke:#545454;stroke-width:5.99998;stroke-linecap:round;stroke-linejoin:round;stroke-opacity:0.995065"
       id="rect15630"
       width="54"
       height="54.000019"
       x="1123.704"
       y="744.65887" />
    <rect
       style="fill:#b3b3b3;stroke:#545454;stroke-width:5.99998;stroke-linecap:round;stroke-linejoin:round;stroke-opacity:0.995065"
       id="rect15632"
       width="54"
       height="54.000019"
       x="1003.704"
       y="804.65887" />
    <rect
       style="fill:#b3b3b3;stroke:#545454;stroke-width:5.99998;stroke-linecap:round;stroke-linejoin:round;stroke-opacity:0.995065"
       id="rect15634"
       width="54"
       height="54.000019"
       x="1063.704"
       y="744.65887" />
    <g
       id="g17062"
       transform="translate(766.00004,-5.20833)">
      <path
         style="fill:#b3b3b3;stroke:#000000;stroke-width:6;stroke-linecap:round;stroke-linejoin:round;stroke-opacity:0.995065"
         d="m 463.70396,507.86727 h 354"
         id="path17054"
         sodipodi:nodetypes="cc" />
      <path
         style="fill:#b3b3b3;stroke:#b3b3b3;stroke-width:6;stroke-linecap:round;stroke-linejoin:round;stroke-miterlimit:4;stroke-dasharray:36, 18, 48, 12;stroke-dashoffset:0;stroke-opacity:0.995065"
         d="m 463.70396,555.86727 h 340"
         id="path17056"
         sodipodi:nodetypes="cc" />
      <path
         style="fill:#b3b3b3;stroke:#b3b3b3;stroke-width:6;stroke-linecap:round;stroke-linejoin:round;stroke-opacity:0.995065"
         d="m 463.70396,635.86727 h 134"
         id="path17058"
         sodipodi:nodetypes="cc" />
      <path
         style="fill:#b3b3b3;stroke:#b3b3b3;stroke-width:6;stroke-linecap:round;stroke-linejoin:round;stroke-miterlimit:4;stroke-dasharray:36, 18, 48, 12;stroke-dashoffset:24;stroke-opacity:0.995065"
         d="m 463.70396,595.86727 h 354"
         id="path17060"
         sodipodi:nodetypes="cc" />
    </g>
    <g
       id="g17072"
       transform="translate(766.00004,254.79163)">
      <path
         style="fill:#b3b3b3;stroke:#000000;stroke-width:6;stroke-linecap:round;stroke-linejoin:round;stroke-opacity:0.995065"
         d="m 463.70396,507.86727 h 354"
         id="path17064"
         sodipodi:nodetypes="cc" />
      <path
         style="fill:#b3b3b3;stroke:#b3b3b3;stroke-width:6;stroke-linecap:round;stroke-linejoin:round;stroke-miterlimit:4;stroke-dasharray:36, 18, 48, 12;stroke-dashoffset:0;stroke-opacity:0.995065"
         d="m 463.70396,555.86727 h 340"
         id="path17066"
         sodipodi:nodetypes="cc" />
      <path
         style="fill:#b3b3b3;stroke:#b3b3b3;stroke-width:6;stroke-linecap:round;stroke-linejoin:round;stroke-opacity:0.995065"
         d="m 463.70396,635.86727 h 134"
         id="path17068"
         sodipodi:nodetypes="cc" />
      <path
         style="fill:#b3b3b3;stroke:#b3b3b3;stroke-width:6;stroke-linecap:round;stroke-linejoin:round;stroke-miterlimit:4;stroke-dasharray:36, 18, 48, 12;stroke-dashoffset:24;stroke-opacity:0.995065"
         d="m 463.70396,595.86727 h 354"
         id="path17070"
         sodipodi:nodetypes="cc" />
    </g>
    <path
       style="fill:#b3b3b3;stroke:#000000;stroke-width:6;stroke-linecap:round;stroke-linejoin:round;stroke-opacity:0.995065"
       d="m 1229.704,1022.6589 h 354"
       id="path17074"
       sodipodi:nodetypes="cc" />
  </g>
  <g
     inkscape:label="02"
     inkscape:groupmode="layer"
     id="g2622"
     style="display:inline">
    <rect
       style="fill:#ffffff;fill-opacity:0.99;stroke:#000000;stroke-width:6;stroke-linecap:round;stroke-linejoin:round;stroke-miterlimit:4;stroke-dasharray:none;stroke-opacity:0.984314"
       id="rect2504"
       width="1588.6064"
       height="942.14948"
       x="165.69678"
       y="112.5579" />
    <g
       id="g6797"
       transform="rotate(90,200.70398,701.65892)">
      <path
         id="path2520"
         style="fill:#ffffff;stroke:#000000;stroke-width:6;stroke-linecap:round;stroke-linejoin:round;stroke-opacity:0.995065"
         d="m 423.70396,478.65894 v 186 h -186 v -186 z"
         sodipodi:nodetypes="ccccc" />
      <rect
         style="fill:#b3b3b3;stroke:#545454;stroke-width:5.99998;stroke-linecap:round;stroke-linejoin:round;stroke-opacity:0.995065"
         id="rect2522"
         width="54"
         height="54.000019"
         x="243.70396"
         y="484.65894" />
      <rect
         style="fill:#b3b3b3;stroke:#545454;stroke-width:5.99998;stroke-linecap:round;stroke-linejoin:round;stroke-opacity:0.995065"
         id="rect2526"
         width="54"
         height="54.000019"
         x="363.70398"
         y="484.65894" />
      <rect
         style="fill:#b3b3b3;stroke:#545454;stroke-width:5.99998;stroke-linecap:round;stroke-linejoin:round;stroke-opacity:0.995065"
         id="rect2528"
         width="54"
         height="54.000019"
         x="363.70398"
         y="604.65894" />
      <rect
         style="fill:#b3b3b3;stroke:#545454;stroke-width:5.99998;stroke-linecap:round;stroke-linejoin:round;stroke-opacity:0.995065"
         id="rect2530"
         width="54"
         height="54.000019"
         x="243.70398"
         y="544.65894" />
    </g>
    <g
       id="g22337"
       style="display:inline"
       transform="translate(-1842.7887,-175.03616)">
      <rect
         style="display:inline;fill:#dcf4f9;fill-opacity:1;stroke:#42c3dd;stroke-width:5.99998;stroke-linecap:round;stroke-linejoin:round;stroke-opacity:0.995065"
         id="rect22329"
         width="54"
         height="54.000019"
         x="1123.704"
         y="744.65887"
         transform="rotate(-90,1809.6164,347.78266)" />
      <path
         style="display:inline;fill:none;stroke:#b3b3b3;stroke-width:26.6594;stroke-linecap:round;stroke-linejoin:round;stroke-miterlimit:4;stroke-dasharray:none;stroke-dashoffset:0"
         d="m 897.75385,589.24664 c -36.50828,-10.86181 -61.96871,-35.35852 -61.96871,-63.83777 0,-38.56013 46.67438,-69.81909 104.24972,-69.81909 57.57559,0 104.24954,31.25896 104.24954,69.81909 0,14.27007 -6.3923,27.54024 -17.3638,38.59621"
         id="path22331"
         sodipodi:nodetypes="csssc"
         transform="matrix(0.20041987,0,0,0.20471302,2044.6314,898.00824)" />
      <path
         style="fill:none;stroke:#00b0d5;stroke-width:6;stroke-linecap:round;stroke-linejoin:round;stroke-miterlimit:4;stroke-dasharray:none"
         d="m 2239.8905,1011.7372 c 1.3711,0 3.5169,1.1091 4.6046,3.0803 l 5.2674,8.3381"
         id="path22333"
         sodipodi:nodetypes="ccc" />
      <path
         style="fill:none;stroke:#00b0d5;stroke-width:6;stroke-linecap:round;stroke-linejoin:round;stroke-miterlimit:4;stroke-dasharray:none"
         d="m 2230.3942,1023.1556 v -22.5498 h 11.0612 c 1.452,0 5.8478,-0.094 5.8478,5.0342 0,5.1278 -3.9126,6.0972 -5.2942,6.0972 h -11.6148"
         id="path22335"
         sodipodi:nodetypes="ccczcc" />
    </g>
    <g
       id="g6829"
       transform="rotate(-90,580.704,1081.6589)">
      <g
         id="g6817">
        <path
           id="path6815"
           style="fill:#ffffff;stroke:#000000;stroke-width:6;stroke-linecap:round;stroke-linejoin:round;stroke-opacity:0.995065"
           d="M 997.70396,738.6589 H 1183.704 v 186 H 997.70396 Z"
           sodipodi:nodetypes="ccccc" />
      </g>
      <rect
         style="fill:#b3b3b3;stroke:#545454;stroke-width:5.99998;stroke-linecap:round;stroke-linejoin:round;stroke-opacity:0.995065"
         id="rect6819"
         width="54"
         height="54.000019"
         x="1003.704"
         y="744.65887" />
      <rect
         style="fill:#b3b3b3;stroke:#545454;stroke-width:5.99998;stroke-linecap:round;stroke-linejoin:round;stroke-opacity:0.995065"
         id="rect6823"
         width="54"
         height="54.000019"
         x="1123.704"
         y="744.65887" />
      <rect
         style="fill:#b3b3b3;stroke:#545454;stroke-width:5.99998;stroke-linecap:round;stroke-linejoin:round;stroke-opacity:0.995065"
         id="rect6825"
         width="54"
         height="54.000019"
         x="1003.704"
         y="804.65887" />
      <rect
         style="fill:#b3b3b3;stroke:#545454;stroke-width:5.99998;stroke-linecap:round;stroke-linejoin:round;stroke-opacity:0.995065"
         id="rect6827"
         width="54"
         height="54.000019"
         x="1063.704"
         y="744.65887" />
    </g>
    <g
       id="g22148"
       style="display:inline"
       transform="translate(-1842.7886,-375.03614)">
      <rect
         style="display:inline;fill:#dcf4f9;fill-opacity:1;stroke:#42c3dd;stroke-width:5.99998;stroke-linecap:round;stroke-linejoin:round;stroke-opacity:0.995065"
         id="rect22140"
         width="54"
         height="54.000019"
         x="1123.704"
         y="744.65887"
         transform="rotate(-90,1809.6164,347.78266)" />
      <path
         style="display:inline;fill:none;stroke:#b3b3b3;stroke-width:26.6594;stroke-linecap:round;stroke-linejoin:round;stroke-miterlimit:4;stroke-dasharray:none;stroke-dashoffset:0"
         d="m 897.75385,589.24664 c -36.50828,-10.86181 -61.96871,-35.35852 -61.96871,-63.83777 0,-38.56013 46.67438,-69.81909 104.24972,-69.81909 57.57559,0 104.24954,31.25896 104.24954,69.81909 0,14.27007 -6.3923,27.54024 -17.3638,38.59621"
         id="path22142"
         sodipodi:nodetypes="csssc"
         transform="matrix(0.20041987,0,0,0.20471302,2044.6314,898.00824)" />
      <path
         style="fill:none;stroke:#00b0d5;stroke-width:6;stroke-linecap:round;stroke-linejoin:round;stroke-miterlimit:4;stroke-dasharray:none"
         d="m 2239.8905,1011.7372 c 1.3711,0 3.5169,1.1091 4.6046,3.0803 l 5.2674,8.3381"
         id="path22144"
         sodipodi:nodetypes="ccc" />
      <path
         style="fill:none;stroke:#00b0d5;stroke-width:6;stroke-linecap:round;stroke-linejoin:round;stroke-miterlimit:4;stroke-dasharray:none"
         d="m 2230.3942,1023.1556 v -22.5498 h 11.0612 c 1.452,0 5.8478,-0.094 5.8478,5.0342 0,5.1278 -3.9126,6.0972 -5.2942,6.0972 h -11.6148"
         id="path22146"
         sodipodi:nodetypes="ccczcc" />
    </g>
    <g
       id="g21783"
       style="display:inline"
       transform="translate(-1202.7886,24.963819)">
      <path
         id="rect21775"
         style="display:inline;fill:#dcf4f9;stroke:#42c3dd;stroke-width:5.99998;stroke-linecap:round;stroke-linejoin:round;stroke-opacity:0.995065"
         transform="rotate(-90,1809.6164,347.78266)"
         d="m 1127.704,744.65887 h 50 v 54.00002 h -50"
         sodipodi:nodetypes="cccc" />
      <path
         style="display:inline;fill:none;stroke:#b3b3b3;stroke-width:26.6594;stroke-linecap:round;stroke-linejoin:round;stroke-miterlimit:4;stroke-dasharray:none;stroke-dashoffset:0"
         d="m 897.75385,589.24664 c -36.50828,-10.86181 -61.96871,-35.35852 -61.96871,-63.83777 0,-38.56013 46.67438,-69.81909 104.24972,-69.81909 57.57559,0 104.24954,31.25896 104.24954,69.81909 0,14.27007 -6.3923,27.54024 -17.3638,38.59621"
         id="path21777"
         sodipodi:nodetypes="csssc"
         transform="matrix(0.20041987,0,0,0.20471302,2044.6314,898.00824)" />
      <path
         style="fill:none;stroke:#00b0d5;stroke-width:6;stroke-linecap:round;stroke-linejoin:round;stroke-miterlimit:4;stroke-dasharray:none"
         d="m 2239.8905,1011.7372 c 1.3711,0 3.5169,1.1091 4.6046,3.0803 l 5.2674,8.3381"
         id="path21779"
         sodipodi:nodetypes="ccc" />
      <path
         style="fill:none;stroke:#00b0d5;stroke-width:6;stroke-linecap:round;stroke-linejoin:round;stroke-miterlimit:4;stroke-dasharray:none"
         d="m 2230.3942,1023.1556 v -22.5498 h 11.0612 c 1.452,0 5.8478,-0.094 5.8478,5.0342 0,5.1278 -3.9126,6.0972 -5.2942,6.0972 h -11.6148"
         id="path21781"
         sodipodi:nodetypes="ccczcc" />
    </g>
    <path
       id="path2492"
       style="display:inline;fill:none;stroke:#000000;stroke-width:6;stroke-linecap:round;stroke-linejoin:round;stroke-opacity:0.995065"
       d="M 997.70398,998.65887 H 1183.704 V 1054.623 H 997.70398 Z"
       sodipodi:nodetypes="ccccc" />
    <path
       id="path2494"
       style="fill:#ffffff;fill-opacity:0.99;stroke:#000000;stroke-width:6;stroke-linecap:round;stroke-linejoin:round;stroke-opacity:0.984314"
       d="M 165.69701,112.5579 V 56.408398 c 0,-9.323487 7.50591,-16.829399 16.8294,-16.829399 H 1737.4776 c 9.3235,0 16.8294,7.505912 16.8294,16.829399 V 112.5579"
       sodipodi:nodetypes="cssssc" />
    <path
       style="fill:none;stroke:#000000;stroke-width:6;stroke-linecap:round;stroke-linejoin:miter;stroke-miterlimit:4;stroke-dasharray:none;stroke-opacity:1"
       d="M 165.69678,112.5579 H 1754.3032"
       id="path2496" />
    <circle
       style="fill:#000000;fill-opacity:1;stroke:#000000;stroke-width:6;stroke-linecap:round;stroke-linejoin:round;stroke-miterlimit:4;stroke-dasharray:none;stroke-opacity:1"
       id="circle2498"
       cx="1713.7347"
       cy="76.029022"
       r="6" />
    <circle
       style="fill:#000000;fill-opacity:1;stroke:#000000;stroke-width:6;stroke-linecap:round;stroke-linejoin:round;stroke-miterlimit:4;stroke-dasharray:none;stroke-opacity:1"
       id="circle2500"
       cx="1673.7347"
       cy="76.029022"
       r="6" />
    <circle
       style="fill:#000000;fill-opacity:1;stroke:#000000;stroke-width:6;stroke-linecap:round;stroke-linejoin:round;stroke-miterlimit:4;stroke-dasharray:none;stroke-opacity:1"
       id="circle2502"
       cx="1633.7347"
       cy="76.029022"
       r="6" />
    <rect
       style="display:inline;fill:#ffffff;fill-opacity:1;stroke:#000000;stroke-width:6;stroke-linecap:round;stroke-linejoin:round;stroke-opacity:0.992157"
       id="rect2506"
       width="710.15942"
       height="107.37144"
       x="638.47009"
       y="200.98119"
       ry="15.615433" />
    <text
       xml:space="preserve"
       id="text2512"
       style="font-size:40px;line-height:1.25;font-family:'Arial Black';-inkscape-font-specification:'Arial Black, ';white-space:pre;shape-inside:url(#rect2624);display:inline;fill:#000000;stroke:none;stroke-width:0.539387"
       transform="matrix(1.8539562,0,0,1.8539562,541.55522,-292.34856)"><tspan
         x="129.01172"
         y="308.78082"
         id="tspan23981"><tspan
           style="font-family:Roboto;-inkscape-font-specification:Roboto"
           id="tspan23979">R</tspan></tspan></text>
    <g
       id="g2518"
       transform="matrix(0.45073737,-0.45073737,0.45073737,0.45073737,347.04199,407.98235)"
       style="stroke:#545454;stroke-width:1.56878">
      <path
         id="path2514"
         style="fill:#ffffff;stroke:#545454;stroke-width:9.41267;stroke-linecap:round;stroke-linejoin:round;stroke-opacity:0.995065"
         d="m 585.41872,185.11928 a 34.829849,34.829849 0 0 1 -34.82985,34.82985 34.829849,34.829849 0 0 1 -34.82985,-34.82985 34.829849,34.829849 0 0 1 34.82985,-34.82985 34.829849,34.829849 0 0 1 34.82985,34.82985 z" />
      <path
         style="fill:#ffffff;stroke:#545454;stroke-width:9.41267;stroke-linecap:round;stroke-linejoin:round;stroke-opacity:0.995065"
         d="m 550.58887,219.94913 v 65.05223"
         id="path2516" />
    </g>
    <g
       id="g6837"
       transform="rotate(-90,580.704,321.65889)">
      <path
         id="path2532"
         style="fill:#ffffff;stroke:#000000;stroke-width:6;stroke-linecap:round;stroke-linejoin:round;stroke-opacity:0.995065"
         d="m 237.70396,738.6589 h 186 v 186 h -186 z"
         sodipodi:nodetypes="ccccc" />
      <rect
         style="fill:#b3b3b3;stroke:#545454;stroke-width:5.99998;stroke-linecap:round;stroke-linejoin:round;stroke-opacity:0.995065"
         id="rect2534"
         width="54"
         height="54.000019"
         x="303.70395"
         y="744.65887" />
      <rect
         style="fill:#b3b3b3;stroke:#545454;stroke-width:5.99998;stroke-linecap:round;stroke-linejoin:round;stroke-opacity:0.995065"
         id="rect2536"
         width="54"
         height="54.000019"
         x="303.70398"
         y="864.65894" />
      <rect
         style="fill:#b3b3b3;stroke:#545454;stroke-width:5.99998;stroke-linecap:round;stroke-linejoin:round;stroke-opacity:0.995065"
         id="rect2538"
         width="54"
         height="54.000019"
         x="363.70398"
         y="744.65887" />
      <rect
         style="fill:#b3b3b3;stroke:#545454;stroke-width:5.99998;stroke-linecap:round;stroke-linejoin:round;stroke-opacity:0.995065"
         id="rect2542"
         width="54"
         height="54.000019"
         x="363.70398"
         y="804.65894" />
    </g>
    <path
       id="path2544"
       style="fill:#b3b3b3;stroke:#545454;stroke-width:5.99998;stroke-linecap:round;stroke-linejoin:round;stroke-opacity:0.995065"
       d="m 243.70396,1054.623 v -49.9641 h 54 v 49.9641"
       sodipodi:nodetypes="cccc" />
    <g
       id="g22724"
       style="display:inline"
       transform="translate(-1902.7886,24.963819)">
      <path
         id="rect22716"
         style="display:inline;fill:#dcf4f9;stroke:#42c3dd;stroke-width:5.99998;stroke-linecap:round;stroke-linejoin:round;stroke-opacity:0.995065"
         transform="rotate(-90,1809.6164,347.78266)"
         d="m 1127.704,744.65887 h 50 v 54.00002 h -50"
         sodipodi:nodetypes="cccc" />
      <path
         style="display:inline;fill:none;stroke:#b3b3b3;stroke-width:26.6594;stroke-linecap:round;stroke-linejoin:round;stroke-miterlimit:4;stroke-dasharray:none;stroke-dashoffset:0"
         d="m 897.75385,589.24664 c -36.50828,-10.86181 -61.96871,-35.35852 -61.96871,-63.83777 0,-38.56013 46.67438,-69.81909 104.24972,-69.81909 57.57559,0 104.24954,31.25896 104.24954,69.81909 0,14.27007 -6.3923,27.54024 -17.3638,38.59621"
         id="path22718"
         sodipodi:nodetypes="csssc"
         transform="matrix(0.20041987,0,0,0.20471302,2044.6314,898.00824)" />
      <path
         style="fill:none;stroke:#00b0d5;stroke-width:6;stroke-linecap:round;stroke-linejoin:round;stroke-miterlimit:4;stroke-dasharray:none"
         d="m 2239.8905,1011.7372 c 1.3711,0 3.5169,1.1091 4.6046,3.0803 l 5.2674,8.3381"
         id="path22720"
         sodipodi:nodetypes="ccc" />
      <path
         style="fill:none;stroke:#00b0d5;stroke-width:6;stroke-linecap:round;stroke-linejoin:round;stroke-miterlimit:4;stroke-dasharray:none"
         d="m 2230.3942,1023.1556 v -22.5498 h 11.0612 c 1.452,0 5.8478,-0.094 5.8478,5.0342 0,5.1278 -3.9126,6.0972 -5.2942,6.0972 h -11.6148"
         id="path22722"
         sodipodi:nodetypes="ccczcc" />
    </g>
    <path
       id="path2550"
       style="fill:none;stroke:#000000;stroke-width:6;stroke-linecap:round;stroke-linejoin:round;stroke-opacity:0.995065"
       d="m 237.70396,998.6589 h 186 v 55.9641 h -186 z"
       sodipodi:nodetypes="ccccc" />
    <g
       id="g2560"
       transform="translate(6,-5.20833)">
      <path
         style="fill:#b3b3b3;stroke:#000000;stroke-width:6;stroke-linecap:round;stroke-linejoin:round;stroke-opacity:0.995065"
         d="m 463.70396,507.86727 h 354"
         id="path2552"
         sodipodi:nodetypes="cc" />
      <path
         style="fill:#b3b3b3;stroke:#b3b3b3;stroke-width:6;stroke-linecap:round;stroke-linejoin:round;stroke-miterlimit:4;stroke-dasharray:36, 18, 48, 12;stroke-dashoffset:0;stroke-opacity:0.995065"
         d="m 463.70396,555.86727 h 340"
         id="path2554"
         sodipodi:nodetypes="cc" />
      <path
         style="fill:#b3b3b3;stroke:#b3b3b3;stroke-width:6;stroke-linecap:round;stroke-linejoin:round;stroke-opacity:0.995065"
         d="m 463.70396,635.86727 h 134"
         id="path2556"
         sodipodi:nodetypes="cc" />
      <path
         style="fill:#b3b3b3;stroke:#b3b3b3;stroke-width:6;stroke-linecap:round;stroke-linejoin:round;stroke-miterlimit:4;stroke-dasharray:36, 18, 48, 12;stroke-dashoffset:24;stroke-opacity:0.995065"
         d="m 463.70396,595.86727 h 354"
         id="path2558"
         sodipodi:nodetypes="cc" />
    </g>
    <g
       id="g2570"
       transform="translate(6,254.79163)">
      <path
         style="fill:#b3b3b3;stroke:#000000;stroke-width:6;stroke-linecap:round;stroke-linejoin:round;stroke-opacity:0.995065"
         d="m 463.70396,507.86727 h 354"
         id="path2562"
         sodipodi:nodetypes="cc" />
      <path
         style="fill:#b3b3b3;stroke:#b3b3b3;stroke-width:6;stroke-linecap:round;stroke-linejoin:round;stroke-miterlimit:4;stroke-dasharray:36, 18, 48, 12;stroke-dashoffset:0;stroke-opacity:0.995065"
         d="m 463.70396,555.86727 h 340"
         id="path2564"
         sodipodi:nodetypes="cc" />
      <path
         style="fill:#b3b3b3;stroke:#b3b3b3;stroke-width:6;stroke-linecap:round;stroke-linejoin:round;stroke-opacity:0.995065"
         d="m 463.70396,635.86727 h 134"
         id="path2566"
         sodipodi:nodetypes="cc" />
      <path
         style="fill:#b3b3b3;stroke:#b3b3b3;stroke-width:6;stroke-linecap:round;stroke-linejoin:round;stroke-miterlimit:4;stroke-dasharray:36, 18, 48, 12;stroke-dashoffset:24;stroke-opacity:0.995065"
         d="m 463.70396,595.86727 h 354"
         id="path2568"
         sodipodi:nodetypes="cc" />
    </g>
    <path
       style="display:inline;fill:#dcf4f9;fill-opacity:1;stroke:#42c3dd;stroke-width:6;stroke-linecap:round;stroke-linejoin:round;stroke-miterlimit:4;stroke-dasharray:none"
       d="m 612.70116,850.6589 h 50.1154"
       id="path23030-6-9"
       sodipodi:nodetypes="cc" />
    <path
       style="display:inline;fill:#dcf4f9;fill-opacity:1;stroke:#42c3dd;stroke-width:6;stroke-linecap:round;stroke-linejoin:round;stroke-miterlimit:4;stroke-dasharray:none"
       d="m 672.79816,850.6589 h 37.3744"
       id="path23032-2-1"
       sodipodi:nodetypes="cc" />
    <path
       style="fill:#b3b3b3;stroke:#000000;stroke-width:6;stroke-linecap:round;stroke-linejoin:round;stroke-opacity:0.995065"
       d="m 469.70396,1022.6589 h 354"
       id="path2572"
       sodipodi:nodetypes="cc" />
    <g
       id="g2586"
       transform="translate(100,-260)">
      <path
         id="path2574"
         style="fill:#ffffff;stroke:#000000;stroke-width:6;stroke-linecap:round;stroke-linejoin:round;stroke-opacity:0.995065"
         d="M 897.70396,998.6589 H 1083.704 v 186 H 897.70396 Z"
         sodipodi:nodetypes="ccccc" />
      <rect
         style="fill:#b3b3b3;stroke:#545454;stroke-width:5.99998;stroke-linecap:round;stroke-linejoin:round;stroke-opacity:0.995065"
         id="rect2576"
         width="54"
         height="54.000019"
         x="903.70398"
         y="1004.6589" />
      <rect
         style="fill:#b3b3b3;stroke:#545454;stroke-width:5.99998;stroke-linecap:round;stroke-linejoin:round;stroke-opacity:0.995065"
         id="rect2578"
         width="54"
         height="54.000019"
         x="903.70398"
         y="1124.6589" />
      <rect
         style="fill:#b3b3b3;stroke:#545454;stroke-width:5.99998;stroke-linecap:round;stroke-linejoin:round;stroke-opacity:0.995065"
         id="rect2580"
         width="54"
         height="54.000019"
         x="1023.704"
         y="1004.6589" />
      <rect
         style="fill:#b3b3b3;stroke:#545454;stroke-width:5.99998;stroke-linecap:round;stroke-linejoin:round;stroke-opacity:0.995065"
         id="rect2584"
         width="54"
         height="54.000019"
         x="963.70398"
         y="1004.6589" />
    </g>
    <g
       id="g21594"
       style="display:inline"
       transform="translate(-1142.7886,-115.03614)">
      <rect
         style="display:inline;fill:#dcf4f9;fill-opacity:1;stroke:#42c3dd;stroke-width:5.99998;stroke-linecap:round;stroke-linejoin:round;stroke-opacity:0.995065"
         id="rect21586"
         width="54"
         height="54.000019"
         x="1123.704"
         y="744.65887"
         transform="rotate(-90,1809.6164,347.78266)" />
      <path
         style="display:inline;fill:none;stroke:#b3b3b3;stroke-width:26.6594;stroke-linecap:round;stroke-linejoin:round;stroke-miterlimit:4;stroke-dasharray:none;stroke-dashoffset:0"
         d="m 897.75385,589.24664 c -36.50828,-10.86181 -61.96871,-35.35852 -61.96871,-63.83777 0,-38.56013 46.67438,-69.81909 104.24972,-69.81909 57.57559,0 104.24954,31.25896 104.24954,69.81909 0,14.27007 -6.3923,27.54024 -17.3638,38.59621"
         id="path21588"
         sodipodi:nodetypes="csssc"
         transform="matrix(0.20041987,0,0,0.20471302,2044.6314,898.00824)" />
      <path
         style="fill:none;stroke:#00b0d5;stroke-width:6;stroke-linecap:round;stroke-linejoin:round;stroke-miterlimit:4;stroke-dasharray:none"
         d="m 2239.8905,1011.7372 c 1.3711,0 3.5169,1.1091 4.6046,3.0803 l 5.2674,8.3381"
         id="path21590"
         sodipodi:nodetypes="ccc" />
      <path
         style="fill:none;stroke:#00b0d5;stroke-width:6;stroke-linecap:round;stroke-linejoin:round;stroke-miterlimit:4;stroke-dasharray:none"
         d="m 2230.3942,1023.1556 v -22.5498 h 11.0612 c 1.452,0 5.8478,-0.094 5.8478,5.0342 0,5.1278 -3.9126,6.0972 -5.2942,6.0972 h -11.6148"
         id="path21592"
         sodipodi:nodetypes="ccczcc" />
    </g>
    <g
       id="g2608"
       transform="translate(766.00004,-5.20833)">
      <path
         style="fill:#b3b3b3;stroke:#000000;stroke-width:6;stroke-linecap:round;stroke-linejoin:round;stroke-opacity:0.995065"
         d="m 463.70396,507.86727 h 354"
         id="path2600"
         sodipodi:nodetypes="cc" />
      <path
         style="fill:#b3b3b3;stroke:#b3b3b3;stroke-width:6;stroke-linecap:round;stroke-linejoin:round;stroke-miterlimit:4;stroke-dasharray:36, 18, 48, 12;stroke-dashoffset:0;stroke-opacity:0.995065"
         d="m 463.70396,555.86727 h 340"
         id="path2602"
         sodipodi:nodetypes="cc" />
      <path
         style="fill:#b3b3b3;stroke:#b3b3b3;stroke-width:6;stroke-linecap:round;stroke-linejoin:round;stroke-opacity:0.995065"
         d="m 463.70396,635.86727 h 134"
         id="path2604"
         sodipodi:nodetypes="cc" />
      <path
         style="fill:#b3b3b3;stroke:#b3b3b3;stroke-width:6;stroke-linecap:round;stroke-linejoin:round;stroke-miterlimit:4;stroke-dasharray:36, 18, 48, 12;stroke-dashoffset:24;stroke-opacity:0.995065"
         d="m 463.70396,595.86727 h 354"
         id="path2606"
         sodipodi:nodetypes="cc" />
    </g>
    <g
       id="g2618"
       transform="translate(766.00004,254.79163)">
      <path
         style="fill:#b3b3b3;stroke:#000000;stroke-width:6;stroke-linecap:round;stroke-linejoin:round;stroke-opacity:0.995065"
         d="m 463.70396,507.86727 h 354"
         id="path2610"
         sodipodi:nodetypes="cc" />
      <path
         style="fill:#b3b3b3;stroke:#b3b3b3;stroke-width:6;stroke-linecap:round;stroke-linejoin:round;stroke-miterlimit:4;stroke-dasharray:36, 18, 48, 12;stroke-dashoffset:0;stroke-opacity:0.995065"
         d="m 463.70396,555.86727 h 340"
         id="path2612"
         sodipodi:nodetypes="cc" />
      <path
         style="fill:#b3b3b3;stroke:#b3b3b3;stroke-width:6;stroke-linecap:round;stroke-linejoin:round;stroke-opacity:0.995065"
         d="m 463.70396,635.86727 h 134"
         id="path2614"
         sodipodi:nodetypes="cc" />
      <path
         style="fill:#b3b3b3;stroke:#b3b3b3;stroke-width:6;stroke-linecap:round;stroke-linejoin:round;stroke-miterlimit:4;stroke-dasharray:36, 18, 48, 12;stroke-dashoffset:24;stroke-opacity:0.995065"
         d="m 463.70396,595.86727 h 354"
         id="path2616"
         sodipodi:nodetypes="cc" />
    </g>
    <path
       style="fill:#b3b3b3;stroke:#000000;stroke-width:6;stroke-linecap:round;stroke-linejoin:round;stroke-opacity:0.995065"
       d="m 1229.704,1022.6589 h 354"
       id="path2620"
       sodipodi:nodetypes="cc" />
    <path
       style="fill:none;stroke:#545454;stroke-width:6;stroke-linecap:round;stroke-linejoin:round;stroke-miterlimit:4;stroke-dasharray:none"
       d="m 842.25692,220.98119 v 67.37143"
       id="path4273"
       sodipodi:nodetypes="cc" />
    <rect
       style="display:inline;fill:none;fill-opacity:1;stroke:#00b0d5;stroke-width:6;stroke-linecap:round;stroke-linejoin:round;stroke-opacity:0.992157"
       id="rect4763"
       width="698.15942"
       height="95.371445"
       x="644.47009"
       y="206.98119"
       ry="9.4365025" />
    <g
       id="g21283-6"
       style="display:inline"
       transform="translate(-1082.7886,-495.03617)">
      <rect
         style="display:inline;fill:#dcf4f9;fill-opacity:1;stroke:#42c3dd;stroke-width:5.99998;stroke-linecap:round;stroke-linejoin:round;stroke-opacity:0.995065"
         id="rect2594-7"
         width="54"
         height="54.000019"
         x="1123.704"
         y="744.65887"
         transform="rotate(-90,1809.6164,347.78266)" />
      <path
         style="display:inline;fill:none;stroke:#b3b3b3;stroke-width:26.6594;stroke-linecap:round;stroke-linejoin:round;stroke-miterlimit:4;stroke-dasharray:none;stroke-dashoffset:0"
         d="m 897.75385,589.24664 c -36.50828,-10.86181 -61.96871,-35.35852 -61.96871,-63.83777 0,-38.56013 46.67438,-69.81909 104.24972,-69.81909 57.57559,0 104.24954,31.25896 104.24954,69.81909 0,14.27007 -6.3923,27.54024 -17.3638,38.59621"
         id="path18907-5"
         sodipodi:nodetypes="csssc"
         transform="matrix(0.20041987,0,0,0.20471302,2044.6314,898.00824)" />
      <path
         style="fill:none;stroke:#00b0d5;stroke-width:6;stroke-linecap:round;stroke-linejoin:round;stroke-miterlimit:4;stroke-dasharray:none"
         d="m 2239.8905,1011.7372 c 1.3711,0 3.5169,1.1091 4.6046,3.0803 l 5.2674,8.3381"
         id="path18913-3"
         sodipodi:nodetypes="ccc" />
      <path
         style="fill:none;stroke:#00b0d5;stroke-width:6;stroke-linecap:round;stroke-linejoin:round;stroke-miterlimit:4;stroke-dasharray:none"
         d="m 2230.3942,1023.1556 v -22.5498 h 11.0612 c 1.452,0 5.8478,-0.094 5.8478,5.0342 0,5.1278 -3.9126,6.0972 -5.2942,6.0972 h -11.6148"
         id="path18915-5"
         sodipodi:nodetypes="ccczcc" />
    </g>
    <path
       style="fill:#dcf4f9;fill-opacity:1;stroke:#42c3dd;stroke-width:6;stroke-linecap:round;stroke-linejoin:round;stroke-miterlimit:4;stroke-dasharray:none"
       d="m 469.70396,590.65894 h 12.1154"
       id="path23030" />
    <path
       style="fill:#dcf4f9;fill-opacity:1;stroke:#42c3dd;stroke-width:6;stroke-linecap:round;stroke-linejoin:round;stroke-miterlimit:4;stroke-dasharray:none"
       d="M 499.80102,590.65894 H 547.1754"
       id="path23032" />
    <path
       style="display:inline;fill:#dcf4f9;fill-opacity:1;stroke:#42c3dd;stroke-width:6;stroke-linecap:round;stroke-linejoin:round;stroke-miterlimit:4;stroke-dasharray:none"
       d="m 1396.8329,550.65894 h 50.1154"
       id="path23030-6"
       sodipodi:nodetypes="cc" />
    <path
       style="display:inline;fill:#dcf4f9;fill-opacity:1;stroke:#42c3dd;stroke-width:6;stroke-linecap:round;stroke-linejoin:round;stroke-miterlimit:4;stroke-dasharray:none"
       d="m 1456.9299,550.65894 h 37.3744"
       id="path23032-2"
       sodipodi:nodetypes="cc" />
    <path
       style="display:inline;fill:#dcf4f9;fill-opacity:1;stroke:#42c3dd;stroke-width:6;stroke-linecap:round;stroke-linejoin:round;stroke-miterlimit:4;stroke-dasharray:none"
       d="m 1484.7012,850.6589 h 50.1154"
       id="path23577"
       sodipodi:nodetypes="cc" />
    <path
       style="display:inline;fill:#dcf4f9;fill-opacity:1;stroke:#42c3dd;stroke-width:6;stroke-linecap:round;stroke-linejoin:round;stroke-miterlimit:4;stroke-dasharray:none"
       d="m 1544.7982,850.6589 h 37.3744"
       id="path23579"
       sodipodi:nodetypes="cc" />
  </g>
  <g
     inkscape:groupmode="layer"
     id="layer2"
     inkscape:label="R"
     style="display:none"
     sodipodi:insensitive="true">
    <g
       id="g21062"
       transform="translate(-492.11658,53.505676)">
      <g
         id="g3758"
         style="display:inline;stroke-width:1.24512"
         transform="matrix(0.72407699,0,0,0.72156196,1997.3425,-157.63558)">
        <g
           id="g3751"
           style="stroke-width:1.24512">
          <path
             style="fill:none;stroke:#000000;stroke-width:7.47075;stroke-linecap:round;stroke-linejoin:round;stroke-miterlimit:4;stroke-dasharray:29.883, 29.883;stroke-dashoffset:0"
             d="m 971.24283,592.04541 c -2.5779,0.54097 -5.19889,1.01669 -7.85864,1.42428"
             id="path2122"
             sodipodi:nodetypes="cc" />
          <path
             style="fill:none;stroke:#000000;stroke-width:7.47075;stroke-linecap:round;stroke-linejoin:round;stroke-miterlimit:4;stroke-dasharray:none;stroke-dashoffset:0"
             d="m 912.52897,592.77179 c -44.22928,-8.08168 -76.74383,-35.17932 -76.74383,-67.36292 0,-38.56013 46.67438,-69.81909 104.24972,-69.81909 57.57559,0 104.24954,31.25896 104.24954,69.81909 0,17.86362 -10.0172,34.16033 -26.4947,46.50806"
             id="path2124"
             sodipodi:nodetypes="csssc" />
        </g>
      </g>
      <path
         style="display:inline;fill:none;stroke:#00b0d5;stroke-width:6;stroke-linecap:round;stroke-linejoin:round;stroke-miterlimit:4;stroke-dasharray:none"
         d="m 2702.7746,250.4031 c 4.9537,0 12.7061,4.098 16.6356,11.38164 l 19.0301,30.80989"
         id="path11982"
         sodipodi:nodetypes="ccc" />
      <path
         style="display:inline;fill:none;stroke:#00b0d5;stroke-width:6;stroke-linecap:round;stroke-linejoin:round;stroke-miterlimit:4;stroke-dasharray:none"
         d="m 2675.6922,292.59463 v -83.32228 h 39.9618 c 5.2458,0 21.1267,-0.34595 21.1267,18.60152 0,18.94746 -14.1351,22.52923 -19.1267,22.52923 h -41.9618"
         id="path14812"
         sodipodi:nodetypes="ccczcc" />
    </g>
  </g>
</svg>
