<svg height="100" width="200" xmlns="http://www.w3.org/2000/svg" style="background-color:#fff">
  <path d="M19.32 44.54a.75.75 0 001.5 0c0-1.64-.36-3.16-.98-4.42a8.05 8.05 0 00-.77-1.27 6.23 6.23 0 00-1.73-1.6 6.23 6.23 0 002.2-2.07 8.28 8.28 0 000-8.86 6.23 6.23 0 00-2.2-2.06c.65-.4 1.23-.94 1.73-1.61.29-.39.54-.81.77-1.27.62-1.27.98-2.79.98-4.42a.75.75 0 00-1.5 0 9.4 9.4 0 01-.19 1.87h-8.4a9.4 9.4 0 01-.2-1.87.75.75 0 00-1.5 0c0 1.63.37 3.15 1 4.42.22.46.47.88.76 1.27.5.67 1.08 1.21 1.73 1.6a6.23 6.23 0 00-2.2 2.07 8.28 8.28 0 000 8.86c.59.88 1.34 1.6 2.2 2.06-.65.4-1.23.94-1.73 1.6-.29.4-.54.82-.77 1.28a10.1 10.1 0 00-.98 4.42.75.75 0 001.5 0c0-.65.07-1.28.19-1.87h8.4c.12.6.2 1.22.2 1.87zm-8.04-16.92h7.3c.2.38.35.79.48 1.22H10.8c.12-.43.28-.84.47-1.22zm-.74 3.13c0-.2 0-.41.03-.61h8.72a7.22 7.22 0 010 1.22h-8.72c-.02-.2-.03-.4-.03-.61zm.27 1.9h8.25c-.13.44-.29.85-.48 1.23h-7.3c-.2-.38-.35-.79-.47-1.22zm7.95-12.52c-.17.44-.37.85-.6 1.22H11.7a7.06 7.06 0 01-.6-1.22zm-1.7 2.52c-.63.52-1.36.82-2.13.82-.77 0-1.5-.3-2.13-.82zm-2.13 2.47a3.8 3.8 0 012.7 1.2h-5.4a3.8 3.8 0 012.7-1.2zm-2.7 10.06h5.4a3.8 3.8 0 01-2.7 1.2 3.8 3.8 0 01-2.7-1.2zm2.7 2.85c.77 0 1.5.3 2.13.82H12.8a3.33 3.33 0 012.13-.82zm-3.83 3.34c.17-.44.37-.85.6-1.22h6.46c.23.37.43.78.6 1.22zm12.21-20.2c0-.35.3-.64.65-.64h8.48a.65.65 0 010 1.3h-8.48a.65.65 0 01-.65-.65zm10.16 1.48v-2.94a1 1 0 011-1h12.12a1 1 0 011 1v2.94a1 1 0 01-1 1H34.47a1 1 0 01-1-1zm-10.16 8.1c0-.36.3-.65.65-.65h8.48a.65.65 0 010 1.3h-8.48a.65.65 0 01-.65-.65zm10.16 1.47v-2.94a1 1 0 011-1h12.12a1 1 0 011 1v2.94a1 1 0 01-1 1H34.47a1 1 0 01-1-1zm-10.16 8.1c0-.36.3-.65.65-.65h8.48a.65.65 0 010 1.3h-8.48a.65.65 0 01-.65-.65zm10.16 1.47v-2.94a1 1 0 011-1h12.12a1 1 0 011 1v2.94a1 1 0 01-1 1H34.47a1 1 0 01-1-1zm62.67 29.66L85.11 53a2 2 0 001.22-1.84V13a2 2 0 00-2-2H77.7c-2.84-2.6-6.97-3.62-12.33-2.98a.95.95 0 00-.34-.08c-4.05-.14-7.25.89-9.54 3.06H5.1a2 2 0 00-2 2v38.15c0 1.1.9 2 2 2h12.47c.09.34.28.65.55.89l5.37 4.62a4.5 4.5 0 002.58 1.06c.32.46.68.89 1.13 1.24l10.35 8.1a5.53 5.53 0 007.14-.32l5.78-5.39v22.32c0 .97.78 1.75 1.75 1.75H60l1.61 5.19a1.75 1.75 0 002.2 1.15l.15-.05a1.75 1.75 0 002.17 1.11l14.64-4.55a1.74 1.74 0 001.15-2.2l-.62-1.98c.56-.66.9-1.5.9-2.42v-1.12c.31-.03.6-.1.9-.18l9.83-2.83a5.53 5.53 0 003.2-8.1zm-15.06-35.4a4.78 4.78 0 001.62-2.17c.35-.9.45-1.86.27-2.68-.2-.93-.73-1.62-1.47-1.91l-.16-.04c.5-2.4 1.81-10.67-1.91-16.24h4.91v38.15h-.32l-.72-1.21a5.46 5.46 0 00-4.68-2.67h-5.3v-2.77c2.94-1.72 4.71-4.55 5.78-7.95a2.79 2.79 0 001.99-.52zm-1.58-.96c.34-1.38.58-2.83.76-4.32.14-.07.3-.13.46-.13.08 0 .16.02.24.05.35.13.5.57.54.82.12.53.04 1.2-.2 1.83a3.31 3.31 0 01-1.09 1.48c-.24.18-.5.27-.7.27zm-6.83 22.72l2.16 3.54-7.85 4.87 7.64-16.81 2.7 4.7-4.14 1.98a1.2 1.2 0 00-.52 1.71zm-12.09-1.6a1.2 1.2 0 00-.63-.73l-3.8-1.81 2.45-4.23 7.02 15.33-7.17-4.38 2-3.24c.18-.28.23-.63.13-.94zm3.15.82c.5-.13.95-.43 1.24-.85l.37-.54.07.54c.02.14.08.25.16.32-.06.05-.12.1-.15.17l-.84 2.22zm0-1.7a.64.64 0 01-.4.26c-.1.02-.2 0-.24-.02l-.05-.04-2.92-6.38-.15-.32.03-.01.12.03h.01l5.82 3.05.01.13-.03.06-.04.07zm-2.11-7.4v-2.7c1.46.61 3.16.99 5.14 1.09 1.94-.1 3.62-.47 5.06-1.06v2.67l-4.76 2.5-.28.14-.06.04-.06-.04-.28-.14zm5.93 4.23l-.05-.07-.02-.06c-.02-.05-.03-.1 0-.13l5.72-3-3.04 6.7h-.05a.64.64 0 01-.4-.26zm1.98 4.82l-.76 1.67-.76-1.98c-.02-.07-.09-.12-.14-.17a.52.52 0 00.15-.32l.08-.54.37.54c.25.37.63.65 1.06.8zM55.1 23.34c.46-.08 1.45-.3 2.63-.84.18.26.49.41.81.4.17-.01 2.38-.14 4.72-1.06a.95.95 0 00.92 1.05c.2.02 4.17.06 6.62-2.74a16.69 16.69 0 007.4 8.3l.64.9-.07.64-.16 1.35a32.7 32.7 0 01-.9 4.31c-.91 3.15-2.36 5.6-4.6 7.18a12.55 12.55 0 01-6.36 1.99c-2.1-.1-3.84-.58-5.3-1.34-.4-.2-.78-.42-1.13-.67-2.24-1.57-3.7-4.02-4.61-7.16A32.57 32.57 0 0154.66 30a60.43 60.43 0 01-.3-3.9c.18-1.1.44-2.02.75-2.76zM18.23 49.08c-.3.36-.45.81-.42 1.28.03.3.13.56.28.8h-13V13h48.75c-3.62 5.64-2.14 14.13-1.7 16.23-.07.02-.14.02-.2.05-.74.29-1.28.98-1.48 1.9-.17.83-.07 1.78.28 2.69.35.9.92 1.67 1.61 2.16.52.37 1.07.56 1.6.56.14 0 .27-.02.4-.04 1.06 3.39 2.83 6.2 5.77 7.93v2.8h-6.05A5.44 5.44 0 0050 48.74l-2.58 2.4H32.33a4.52 4.52 0 00-1.12-1.46l-3.96-3.41a1.76 1.76 0 00-2.67.45l-1.15-1a1.76 1.76 0 00-2.78.69 1.76 1.76 0 00-1.97 2.3c-.17.09-.32.21-.45.36zm35.7-13.99c-.2 0-.46-.1-.7-.27a3.31 3.31 0 01-1.1-1.48 3.32 3.32 0 01-.2-1.83c.05-.25.2-.69.55-.82a.65.65 0 01.23-.05c.17 0 .33.06.47.13.17 1.5.42 2.95.76 4.32zm-8.66 18.07L40.6 57.5l-5.55-4.34zm-18.35 5.06c-.08 0-.15.03-.24.04a3.12 3.12 0 01-2.22-.73l-5.08-4.37-.29-.25a.25.25 0 01-.09-.18c0-.04 0-.11.06-.18a.26.26 0 01.2-.09c.06 0 .12.02.16.06l.74.64 1.53 1.31c.2.17.48.19.73.1a.82.82 0 00.5-.58.75.75 0 00-.24-.74l-.1-.1-1.17-1-1.16-1-.85-.73a.26.26 0 01-.03-.36c.09-.1.25-.12.36-.03l1.3 1.13 1.17 1 .49.42c.31.27.83.18 1.1-.13a.74.74 0 00.15-.3.74.74 0 00.03-.25.75.75 0 00-.26-.51l-.26-.23-3.28-2.82a.26.26 0 01-.03-.36c.1-.1.26-.12.36-.03L24.05 51c.3.27.83.18 1.1-.13a.75.75 0 00-.08-1.06l-2.95-2.55a.26.26 0 01-.1-.17c0-.04.01-.12.07-.19a.26.26 0 01.36-.03l3.29 2.84c.2.18.58.2.84.1a.75.75 0 00.21-1.27l-.85-.74a.26.26 0 01-.1-.17c0-.04 0-.12.07-.19.09-.1.25-.12.36-.03l3.96 3.41a3 3 0 011.02 1.89c0 .07.03.14.03.2v.25c0 .73-.25 1.43-.73 1.98l-1.77 2.07c-.48.55-1.13.9-1.86 1zM63.5 92.29l-.14.05a.25.25 0 01-.32-.17l-5.31-17.09a.25.25 0 01.16-.31l14.64-4.56h.07c.1 0 .17.05.22.13l.02.04.21.67.93 2.98-5.02 1.45c-.45.13-.82.43-1.05.84a1.74 1.74 0 00.09 1.85 1.77 1.77 0 00-.42 1.7 1.74 1.74 0 001.25 1.22 1.76 1.76 0 001.9 1.84l.07.35a1.76 1.76 0 002.17 1.21l3.92-1.11 1.26 4.05.01.04a.25.25 0 01-.16.31zm16.97-3.57a.25.25 0 01-.15.12L65.68 93.4c-.11.03-.22-.03-.28-.13l13.04-4.06a1.74 1.74 0 001.2-1.99l-.04-.2-.17-.52-1.1-3.53.4-.11 1.3 4.21.46 1.46c.02.08 0 .15-.02.19zm.24-5.04c0 .13-.02.26-.04.39l-.52-1.66c.2-.07.38-.14.56-.24zm-1-2.7l-.34.14-.37.1-.72.2-5.72 1.63a.26.26 0 01-.32-.18.25.25 0 01.03-.19c.02-.03.06-.1.15-.12l2.87-.82c.26-.07.42-.3.5-.55a.82.82 0 00-.22-.75.75.75 0 00-.75-.2l-4.17 1.19a.26.26 0 01-.32-.18.26.26 0 01.18-.31l3.76-1.07c.19-.06.34-.22.44-.4.1-.17.1-.41.05-.6a.75.75 0 00-.93-.52l-4.5 1.28a.25.25 0 01-.3-.17.26.26 0 01.17-.32l4.5-1.28c.19-.05.34-.22.44-.4.1-.17.1-.4.05-.6a.75.75 0 00-.93-.51l-3.75 1.07a.26.26 0 01-.31-.18.26.26 0 01.18-.32l9.5-2.75 1.38-.4c.22.3.38.6.47.94l.75 2.62a3.06 3.06 0 01-1.77 3.65zm-5-9.66l.14-.05h.08c.1 0 .2.06.24.17l.64 2.06-.39.11zm20.42 4.42a4.02 4.02 0 01-2.61 2.37l-9.83 2.83a4 4 0 01-.64.13 4.56 4.56 0 00.87-4.15l-.74-2.62a4.37 4.37 0 00-.66-1.35l2.86-.82a.75.75 0 00.44-1.1l-2.72-4.56-1.35-2.26a.75.75 0 10-1.29.77l1.25 2.08v4.57l-.65.18c-.73.21-1.38.56-1.95 1.02l-.86.25L76.6 71a1.75 1.75 0 00-2.2-1.15l-.14.05c-.3-.9-1.27-1.4-2.18-1.11l-14.64 4.56a1.75 1.75 0 00-1.15 2.19l3.24 10.4h-7.32a.25.25 0 01-.25-.25V61.64a.75.75 0 00-1.26-.55l-7.04 6.57a4.08 4.08 0 01-5.2.23l-10.34-8.1c-.1-.08-.18-.17-.27-.26.8-.25 1.5-.7 2.06-1.35l1.78-2.06a4.5 4.5 0 001.08-2.8c.09.05.19.1.28.17l7.14 5.6c.3.22.7.2.98-.05l8.44-7.88 1.4-1.32a4.02 4.02 0 013.02-1.06h3.22l-2.55 4.38-.04.07a1.16 1.16 0 00.52 1.64l3.8 1.8L57 59.89a1.16 1.16 0 00.39 1.61l7.89 4.83-.02.05a1.2 1.2 0 00.31 1.4 1.3 1.3 0 001.53.13l8.77-5.43a1.2 1.2 0 00.4-1.65l-2.15-3.51 4.12-1.99c.3-.15.54-.41.64-.73.1-.32.06-.66-.1-.95l-.28-.48-2.51-4.38h2.62c1.42.01 2.69.74 3.4 1.93l.27.45.6 1 .6 1L94.84 72.2c.64 1.08.74 2.36.28 3.53zm-12.92-4.55v-1.61l.82 1.38zM63.7 35.3v-2.1a.75.75 0 011.5 0v1.93h1.16a.75.75 0 010 1.5h-1.32c-.74 0-1.33-.6-1.33-1.33zm-5.04-3.36a1.46 1.46 0 110-2.93 1.46 1.46 0 010 2.93zm12.03-1.47a1.46 1.46 0 112.93 0 1.46 1.46 0 01-2.93 0zm-8.95 9.45a.75.75 0 011.46-.23c.25.15 1.04.37 2.2.37 1.18 0 1.96-.22 2.21-.37a.75.75 0 011.47.23c0 1.2-1.9 1.64-3.67 1.64-1.78 0-3.67-.43-3.67-1.64z"/>
  <g transform="translate(-4 4)">
    <path d="M180.15 80.81c-.08-.98-1.48-1.03-1.48-1.03l-5.43.46c-1.15.1-1.3-1.73-.15-1.82l1.18-.1s1.37-.08 1.29-1.02c-.08-.94-1.45-.79-1.45-.79l-6.98.6c-.1.28-.21 1.65-.1 2.99.07.8.25 2.97 1.06 2.9l10.77-.92s1.37-.28 1.29-1.27z" fill="#fff" stroke="#000" stroke-width=".83"/>
    <path d="M155.63 49.16h3.87c1.52 0 2.9 1.47 3.59 2.54l9.39 19.69-7.44 1.04-3.09-4.87.99 18.33-33.45-.28-.22-33.7c-.01-1.52.94-2.75 2.46-2.75h8.5l.03-2.58 12.78.04.15 2.54z" fill="#fff" stroke-width=".83" stroke-linecap="round" stroke-linejoin="round"/>
    <path d="M140.38 46.61v-6.49l12.08.28-.02 6.21M167.17 58.47l-4.73-7.41a3.76 3.76 0 00-3.03-1.72h-4.07" fill="none" stroke="#000" stroke-width=".83" stroke-linecap="round" stroke-linejoin="round"/>
    <path d="M132.16 28.41c-1.4-.71-3.1.5-2.61 2.9.5 2.55 1.72 3.87 3.86 3.88M161.3 28.41c1.42-.71 3.1.5 2.62 2.9-.5 2.55-1.72 3.87-3.85 3.88" fill="#fff" stroke="#000" stroke-width=".83" stroke-linecap="round"/>
    <path d="M132.45 25.43c-.13 9.87 3.2 20.3 14.5 20.23 9.37-.05 13.2-8.25 14.17-15.79.2-1.53.28-3.04.27-4.44.23-8.77-7.22-15.23-14.47-15.23-7.25 0-14.3 3.8-14.47 15.23z" fill="#fff" stroke="#000" stroke-width=".8345850000000001"/>
    <path d="M162.14 27.9c.1-1.62.54-3.75.86-6.07.04-.27.13-.27.19.7.53-2.57.31-5.63.07-7.67-.45-3.86-2.29-7.42-7.33-9.34-.9-.35 1.21.08 2.03.38-1.42-.61-3.29-1.94-9.18-1.52-7.61-.58-11.52 1.4-14.07 3.91-2.83 2.78-4.53 7.79-3.77 11.4-.01-1.04.23-1.39.29-.31.17 3.12.63 6.14.55 8.4 0 0 .98-.25 2.04 3.13-.5-5.64-.27-9.45.31-11.66.72-2.7 5.29.53 5.47-1.8 1.84 2.69 11.42 3.71 11.14 3.2-.57-1.27.06-1.92.06-1.92 1.37 1.67 6.07 2.58 5.56 2.1-1-1.16.04-1.56.04-1.56.74 1.24 3.73 1.75 3.73 1.75 1.15.69-.38 4.85-.03 9.9.62-3.14 2.04-3.02 2.04-3.02z" stroke-width=".13"/>
    <g transform="matrix(.1391 0 0 .1391 74.24 -19.82)" stroke-linecap="round" stroke-linejoin="round">
      <circle cx="567.05" cy="352.32" r="29.66" fill="none" stroke="#000" stroke-width="6"/>
      <circle cx="477.05" cy="352.32" r="29.66" fill="none" stroke="#000" stroke-width="6"/>
      <path d="M508.93 349.13c4.45-6.42 22.84-6.56 27.68 0" fill="none" stroke="#000" stroke-width="6"/>
      <circle cx="572.66" cy="357.62" r="10.19" stroke-width="9.72"/>
      <circle cx="483.66" cy="357.62" r="10.19" stroke-width="9.72"/>
    </g>
    <path d="M145.39 31.55c-.2.84-.63 2.15-.04 2.99.4.58 1.45.48 2.18.4M143.2 40.33s1.12-1.05 3.45-1.05 3.44 1.05 3.44 1.05" fill="none" stroke="#000" stroke-width=".83" stroke-linecap="round"/>
    <circle cx="146.5" cy="54.91" r=".42" stroke-width=".4" stroke-linecap="round" stroke-linejoin="round"/>
    <path d="M129.43 60.29v23.1" fill="none" stroke="#000" stroke-width=".83" stroke-linecap="round" stroke-linejoin="round"/>
    <circle cx="146.5" cy="60.47" r=".42" stroke-width=".4" stroke-linecap="round" stroke-linejoin="round"/>
    <path d="M166.96 58.16l2.78-9.13a4.91 4.91 0 012-2.67c.4-.25 1.02-.37 1.02-.37l2.9 6.58-2.92 17.33c-.84 4.1-6.16 4.83-8.45 1.22l-2.34-3.56" fill="#fff" stroke="#000" stroke-width=".83" stroke-linecap="round" stroke-linejoin="round"/>
    <path d="M173.06 41.68s.59-.95 1.3-.54c.7.42.18 1.4.18 1.4l-.58.99 2.3-3.95s.58-.94 1.3-.54c.71.4.17 1.4.17 1.4l-2.07 3.57 2.53-4.35s.59-.94 1.3-.54c.7.4.18 1.4.18 1.4l-2.53 4.35 2.15-3.7s.64-.91 1.3-.54.18 1.4.18 1.4l-2.27 3.9 1.69-2.9s.59-.97 1.3-.54c.7.43.17 1.4.17 1.4l-3.25 5.6c-1.06 1.81-2.43 3.1-4.19 2.07l-2.94-1.69c-1.56-.94-1.03-3.35-.53-4.13z" fill="#fff" stroke="#000" stroke-width=".83" stroke-linecap="round" stroke-linejoin="round"/>
    <path d="M161.94 77.93V60.98" fill="none" stroke="#000" stroke-width=".83" stroke-linecap="round" stroke-linejoin="round"/>
    <path d="M140.43 59.25l6.6 16.42h16.8c1.56 0 2.9.67 3.79 1.67 1.17 1.28 1.72 3.51.22 5.18a5.38 5.38 0 01-3.9 1.78l-20.36 1.39v0a5.2 5.2 0 01-4.9-3.34l-9.57-22.81c-2.25-4.96-.53-10.08 4.83-10.25h3.76" fill="#fff" stroke="#000" stroke-width=".83" stroke-linecap="round"/>
    <circle cx="146.5" cy="66.04" r=".42" stroke-width=".4" stroke-linecap="round" stroke-linejoin="round"/>
    <circle cx="146.5" cy="71.6" r=".42" stroke-width=".4" stroke-linecap="round" stroke-linejoin="round"/>
    <path d="M155.74 50.01l-1.77-2.97-7.47 4.25 2.73 4.71m1.35-1.24l3.83-3.52" fill="none" stroke="#000" stroke-width=".83" stroke-linecap="round" stroke-linejoin="round"/>
    <path d="M137.27 50.01l1.77-2.97 7.46 4.25-2.72 4.71m-1.36-1.24l-3.82-3.52" fill="none" stroke="#000" stroke-width=".83" stroke-linecap="round" stroke-linejoin="round"/>
  </g>
</svg>
